Tuango - RFM Analysis for Mobile App Push Messaging
…
  average
1  336632

print(ROME_sq)

  average
1 1.27223

Question 10

tuango %>% filter(rfm_iq != rfm_sq)

# A tibble: 10,262 x 17
   userid    recency frequency monetary rfm_iq_pre buyer ordersize platform category mobile_os rec_iq freq_iq mon_iq rfm_iq freq_sq mon_sq rfm_sq
   <chr>       <int>     <int>    <dbl> <chr>      <fct>     <dbl> <fct>       <int> <fct>      <int>   <int>  <int> <chr>    <int>  <int> <chr> 
 1 U96495706     101         4     70   533        no            0 Browser         3 android        5       3      3 533          3      4 534   
 2 U79189310      79         4     37.6 534        no            0 App             3 android        5       3      4 534          3      5 535   
 3 U67701028      78         1     72.9 453        no            0 App             3 android        4       5      3 453          5      2 452   
 4 U93348582      62         6     36.9 414        no            0 App             3 android        4       1      4 414          2      4 424   
 5 U19691266      44         6     19.8 415        no            0 App             3 android        4       1      5 415          2      5 425   
 6 U68753238      28         4    108   332        no            0 App             3 android        3       3      2 332          3      3 333   
 7 U43344148      16         2     36   244        no            0 App             3 android        2       4      4 244          5      4 254   
 8 U41921084      15         2     31   244        no            0 Browser         3 others         2       4      4 244          5      4 254   
 9 U11113033      14         2     35   244        no            0 App             3 android        2       4      4 244          5      4 254   
10 U67723307      13         6     19   215        no            0 App             3 android        2       1      5 215          2      5 225   
#  with 10,252 more rows
…
